<?xml version="1.0" encoding="UTF-8"?>
<!DOCTYPE svg PUBLIC "-//W3C//DTD SVG 1.1//EN" "http://www.w3.org/Graphics/SVG/1.1/DTD/svg11.dtd">
<!-- Creator: CorelDRAW 2020 (64-Bit) -->
<svg xmlns="http://www.w3.org/2000/svg" xml:space="preserve" width="14in" height="15.2in" version="1.1" style="shape-rendering:geometricPrecision; text-rendering:geometricPrecision; image-rendering:optimizeQuality; fill-rule:evenodd; clip-rule:evenodd"
viewBox="0 0 4284.76 4652.03"
 xmlns:xlink="http://www.w3.org/1999/xlink"
 xmlns:xodm="http://www.corel.com/coreldraw/odm/2003">
 <defs>
  <style type="text/css">
   <![CDATA[
    .fil9 {fill:none}
    .fil2 {fill:#F3D1B5}
    .fil4 {fill:#CCCCFF}
    .fil7 {fill:#E0E0E0}
    .fil6 {fill:#E6E6E6}
    .fil5 {fill:#FAFAFA}
    .fil1 {fill:#FFE0CA}
    .fil0 {fill:#FFEADC}
    .fil8 {fill:white}
    .fil3 {fill:#F2D1B5}
   ]]>
  </style>
   <clipPath id="id0">
    <path d="M-0 0l4284.76 0 0 4652.03 -4284.76 0 0 -4652.03z"/>
   </clipPath>
 </defs>
 <g id="Layer_x0020_1">
  <metadata id="CorelCorpID_0Corel-Layer"/>
  <g>
  </g>
  <g style="clip-path:url(#id0)">
   <g>
    <g id="_2362530412688">
     <path class="fil0" d="M908.54 3723.12c-200.34,-127.59 -237.28,-232.49 -187.13,-505.99 73.75,-402.24 703.64,-301.22 1029.39,-301.22 516.29,0 1150.26,-17.61 1646.26,127.87 53.2,15.61 243.39,181.85 145.77,313.53 -347.45,468.64 -1636.19,598.71 -2175.65,451.91 -47.47,-12.92 -439.15,-73.69 -458.64,-86.1z"/>
     <rect class="fil1" x="904.17" y="986.93" width="1907.43" height="2596.86" rx="321.74" ry="321.74"/>
     <path class="fil2" d="M1602.24 986.93l887.63 0c49.27,0 96.05,11.24 137.9,31.26l0 72.16 -1025.53 0 0 -103.42z"/>
     <rect class="fil3" x="1909.61" y="1880.32" width="718.16" height="106.29"/>
     <path class="fil4" d="M1225.91 986.93l533.2 0c95.41,0 173.47,78.06 173.47,173.47l0 2249.93c0,95.41 -78.06,173.47 -173.47,173.47l-533.2 0c-176.95,0 -321.73,-144.78 -321.73,-321.73l0 -1953.39c0,-176.95 144.78,-321.73 321.73,-321.73z"/>
     <rect class="fil5" x="1197.19" y="1486.76" width="430.89" height="1493.77"/>
     <polygon class="fil6" points="1574.22,1486.76 1628.09,1511.21 1628.09,2280.26 1310.21,2980.53 1251.05,2980.53 1197.19,2956.08 1197.19,2187.04 1515.07,1486.76 "/>
     <path class="fil4" d="M2936.92 986.93l-287.46 0c-51.43,0 -93.52,78.06 -93.52,173.47l0 2249.93c0,95.41 42.08,173.47 93.52,173.47l287.46 0c95.4,0 173.45,-144.78 173.45,-321.73l0 -1953.39c0,-176.95 -78.05,-321.73 -173.45,-321.73z"/>
     <polygon class="fil7" points="2133.68,1986.6 2193.91,1986.6 2314.66,2112.1 2314.66,3320.94 2133.68,3320.94 2133.68,2862.35 2063.52,2871.86 2052.2,2145.86 2133.68,2134.83 "/>
     <path class="fil5" d="M2314.66 2806.67l0 514.27 -134.8 0c-3.4,-27.2 -2.32,-65.36 -0.45,-77.55 8.38,-54.55 2.42,-146.82 9.6,-184.96 16.9,-89.78 -31.5,-142.15 -10.1,-225.83 4.81,-18.83 41.39,-29 52.94,-28.72 42.19,1.02 65.56,-1.42 82.8,2.8z"/>
     <polygon class="fil6" points="2314.66,2115.15 2314.66,2536.72 2230.78,2856.96 2099.18,2805.14 2283.14,2102.74 "/>
     <path class="fil4" d="M2133.68 1986.6l60.23 0 119.35 124.05c-3.9,5.33 -8.82,11.31 -15.01,18.63 -34.85,41.21 -55.13,35.99 -66.03,56.51 -27.63,52.04 -76.01,-43.03 -98.54,-69.42l0 -129.78z"/>
     <rect class="fil8" transform="matrix(0.874548 0.34439 -0.280858 1.07238 2310.43 2105.62)" width="150.48" height="654.99"/>
     <path class="fil7" d="M2133.68 2134.83c23.85,-2.4 68.94,39.38 94.06,48.8 7.54,-13.82 58.52,-59.75 71.73,-69.19 7.17,-5.12 -45.53,126.5 -71.61,73.99 -5.56,-11.19 -1.5,38.73 -50.6,4.31 -39.04,-27.37 -18.86,-13.68 -39.89,-56.02 -0.67,-1.35 -2.04,-2.06 -3.7,-1.89z"/>
    </g>
   </g>
  </g>
  <polygon class="fil9" points="-0,0 4284.76,0 4284.76,4652.03 -0,4652.03 "/>
 </g>
</svg>
