2019-05-15T18:02:44.287187Z 0 [Warning] InnoDB: New log files created, LSN=45790
2019-05-15T18:02:45.012961Z 0 [Warning] InnoDB: Creating foreign key constraint system tables.
2019-05-15T18:02:45.244829Z 0 [Warning] No existing UUID has been found, so we assume that this is the first time that this server has been started. Generating a new UUID: a426e2e5-773b-11e9-b10d-00ffb95ce9ef.
2019-05-15T18:02:45.372779Z 0 [Warning] Gtid table is not ready to be used. Table 'mysql.gtid_executed' cannot be opened.
2019-05-15T18:02:45.377467Z 1 [Warning] root@localhost is created with an empty password ! Please consider switching off the --initialize-insecure option.
